<?xml version="1.0" encoding="UTF-8" standalone="no"?>
<!-- Created with Inkscape (http://www.inkscape.org/) -->

<svg
   xmlns:dc="http://purl.org/dc/elements/1.1/"
   xmlns:cc="http://creativecommons.org/ns#"
   xmlns:rdf="http://www.w3.org/1999/02/22-rdf-syntax-ns#"
   xmlns:svg="http://www.w3.org/2000/svg"
   xmlns="http://www.w3.org/2000/svg"
   xmlns:sodipodi="http://sodipodi.sourceforge.net/DTD/sodipodi-0.dtd"
   xmlns:inkscape="http://www.inkscape.org/namespaces/inkscape"
   width="52.906738"
   height="67.617088"
   id="svg2"
   version="1.1"
   inkscape:version="0.48.3.1 r9886"
   sodipodi:docname="logo.svg"
   inkscape:export-filename="/home/kostmo/tesla/bitbucket-kostmo-stash-plugins/line-ending-stats/graphics/logo.png"
   inkscape:export-xdpi="27.217705"
   inkscape:export-ydpi="27.217705">
  <defs
     id="defs4" />
  <sodipodi:namedview
     id="base"
     pagecolor="#ffffff"
     bordercolor="#666666"
     borderopacity="1.0"
     inkscape:pageopacity="0.0"
     inkscape:pageshadow="2"
     inkscape:zoom="7.9195959"
     inkscape:cx="31.376793"
     inkscape:cy="35.657233"
     inkscape:document-units="px"
     inkscape:current-layer="layer1"
     showgrid="false"
     fit-margin-top="0"
     fit-margin-left="0"
     fit-margin-right="0"
     fit-margin-bottom="0"
     showborder="true"
     inkscape:showpageshadow="true"
     borderlayer="false"
     inkscape:window-width="1680"
     inkscape:window-height="869"
     inkscape:window-x="0"
     inkscape:window-y="28"
     inkscape:window-maximized="1" />
  <metadata
     id="metadata7">
    <rdf:RDF>
      <cc:Work
         rdf:about="">
        <dc:format>image/svg+xml</dc:format>
        <dc:type
           rdf:resource="http://purl.org/dc/dcmitype/StillImage" />
        <dc:title />
      </cc:Work>
    </rdf:RDF>
  </metadata>
  <g
     inkscape:label="Layer 1"
     inkscape:groupmode="layer"
     id="layer1"
     transform="translate(-214.37332,-258.82422)">
    <g
       id="g3821"
       transform="translate(0.22097778,0)">
      <rect
         ry="5"
         rx="5"
         y="294.74777"
         x="214.15234"
         height="31.693535"
         width="52.906738"
         id="rect2985"
         style="fill:#000000;fill-opacity:1;fill-rule:evenodd;stroke:none" />
      <flowRoot
         transform="translate(17.172593,147.34013)"
         style="font-size:40px;font-style:normal;font-weight:normal;line-height:125%;letter-spacing:0px;word-spacing:0px;fill:#000000;fill-opacity:1;stroke:none;font-family:Sans"
         id="flowRoot3755"
         xml:space="preserve"><flowRegion
           id="flowRegion3757"><rect
             y="152.31627"
             x="199.00005"
             height="65.659912"
             width="154.55334"
             id="rect3759" /></flowRegion><flowPara
           style="font-size:16px;font-style:normal;font-variant:normal;font-weight:bold;font-stretch:normal;text-align:start;line-height:125%;writing-mode:lr-tb;text-anchor:start;fill:#ffffff;fill-opacity:1;font-family:Courier New;-inkscape-font-specification:Courier New Bold"
           id="flowPara3761">space</flowPara></flowRoot>    </g>
    <g
       id="g3814"
       transform="translate(-0.22097778,0)">
      <rect
         ry="5"
         rx="5"
         y="258.82422"
         x="214.5943"
         height="31.693535"
         width="52.906738"
         id="rect2985-2"
         style="fill:#000000;fill-opacity:1;fill-rule:evenodd;stroke:none" />
      <flowRoot
         transform="translate(16.983184,104.23511)"
         style="font-size:40px;font-style:normal;font-weight:normal;line-height:125%;letter-spacing:0px;word-spacing:0px;fill:#000000;fill-opacity:1;stroke:none;font-family:Sans"
         id="flowRoot3755-9"
         xml:space="preserve"><flowRegion
           id="flowRegion3757-3"><rect
             y="152.31627"
             x="199.00005"
             height="65.659912"
             width="154.55334"
             id="rect3759-1" /></flowRegion><flowPara
           style="font-size:28px;font-style:normal;font-variant:normal;font-weight:bold;font-stretch:normal;text-align:start;line-height:125%;writing-mode:lr-tb;text-anchor:start;fill:#ffffff;fill-opacity:1;font-family:Courier New;-inkscape-font-specification:Courier New Bold"
           id="flowPara3761-5">Tab</flowPara></flowRoot>    </g>
  </g>
</svg>
